{
  "content": [
    {
      "id": 3750818,
      "firstName": "BUG-1621",
      "lastName": "chronological order",
      "photoUrl": "",
      "birthdate": "1970-02-28",
      "deathdate": "2021-03-29",
      "deathCity": "Agdenes",
      "hideDeathDate": false,
      "memorialPage": {
        "visible": true,
        "url": "https://abbedissen.vareminnesider.no/memorial_page/memorial_page_personal_info.php?order_id=3750818&set_site_id=231&cat=home&sign=6f164ccf17314b6dec34ea1d2d998aa7"
      },
      "donation": {
        "visible": false,
        "url": ""
      },
      "flowerShop": {
        "visible": true,
        "url": "https://abbedissen.vareminnesider.no/flower_shop/choose_delivery_type.php?order_id=3750818&set_site_id=231&action=buy_product&cat=flowers&hide_wizard=true&page_source=portal&sign=85ae74bd674765440013ed97f354777b"
      },
      "deathNotice": {
        "visible": true,
        "url": "https://abbedissen.vareminnesider.no/order_info.php?order_id=3750818&set_site_id=231&memorial_page_created=1&design=abbedissen&sign=90555b89ffcb500e5e63a7c3f4f8c751"
      }
    },
    {
      "id": 3750792,
      "firstName": "LEGACY-3936",
      "lastName": "LEGACY-3936",
      "photoUrl": "",
      "birthdate": "1919-12-09",
      "deathdate": "2021-03-17",
      "deathCity": "Addis Abeba, Etiopia",
      "hideDeathDate": false,
      "memorialPage": {
        "visible": true,
        "url": "https://tromsbyraet.vareminnesider.no/memorial_page/memorial_page_personal_info.php?order_id=3750792&set_site_id=120&cat=home&sign=619a1c5b53418fbb8819b0627c046139"
      },
      "donation": {
        "visible": true,
        "url": "https://tromsbyraet.vareminnesider.no/donation/memorial_donation.php?order_id=3750792&set_site_id=120&cat=MemorialDonation&action=new&sign=c6bdda206c89e3afa380f58241624609"
      },
      "flowerShop": {
        "visible": true,
        "url": "https://tromsbyraet.vareminnesider.no/flower_shop/choose_delivery_type.php?order_id=3750792&set_site_id=120&action=buy_product&cat=flowers&hide_wizard=true&page_source=portal&sign=54156c898d96944eec5efa5f32dc03ea"
      },
      "deathNotice": {
        "visible": true,
        "url": "https://tromsbyraet.vareminnesider.no/order_info.php?order_id=3750792&set_site_id=120&memorial_page_created=1&design=tromsbyraet&sign=cb99acf537395e45fadbf785eb568134"
      }
    },
    {
      "id": 3750740,
      "firstName": "BUG-1646",
      "lastName": "BUG-1646",
      "photoUrl": "",
      "birthdate": "2000-01-10",
      "deathdate": "2021-03-08",
      "deathCity": "Abelvær",
      "hideDeathDate": false,
      "memorialPage": {
        "visible": true,
        "url": "https://vareminnesider.no/memorial_page/memorial_page_personal_info.php?order_id=3750740&set_site_id=1&cat=home&sign=bf1c4840bd3be9fcb2ec2e8b84495a5f"
      },
      "donation": {
        "visible": false,
        "url": ""
      },
      "flowerShop": {
        "visible": false,
        "url": ""
      },
      "deathNotice": {
        "visible": true,
        "url": "https://vareminnesider.no/order_info.php?order_id=3750740&set_site_id=1&memorial_page_created=1&design=vareminnesider-no&sign=176176690fa476f766f833ce316874bb"
      }
    },
    {
      "id": 3750666,
      "firstName": "Introduction",
      "lastName": "Introduction",
      "photoUrl": "",
      "birthdate": "2000-01-10",
      "deathdate": "2021-02-15",
      "deathCity": "Abelvær",
      "hideDeathDate": false,
      "memorialPage": {
        "visible": true,
        "url": "https://abbedissen.vareminnesider.no/memorial_page/memorial_page_personal_info.php?order_id=3750666&set_site_id=231&cat=home&sign=ef939ff57e8c8b13bf4e4d3ff1368302"
      },
      "donation": {
        "visible": false,
        "url": ""
      },
      "flowerShop": {
        "visible": true,
        "url": "https://abbedissen.vareminnesider.no/flower_shop/choose_delivery_type.php?order_id=3750666&set_site_id=231&action=buy_product&cat=flowers&hide_wizard=true&page_source=portal&sign=35baf28e3bfaf015a3e7524c4ed5c044"
      },
      "deathNotice": {
        "visible": true,
        "url": "https://abbedissen.vareminnesider.no/order_info.php?order_id=3750666&set_site_id=231&memorial_page_created=1&design=abbedissen&sign=7f299f7b1af12c5aa803322e92890177"
      }
    },
    {
      "id": 3750647,
      "firstName": "LEGACY-4046",
      "lastName": "LEGACY-4046",
      "photoUrl": "",
      "birthdate": "1919-12-09",
      "deathdate": "2021-02-09",
      "deathCity": "Addis Abeba, Etiopia",
      "hideDeathDate": false,
      "memorialPage": {
        "visible": true,
        "url": "https://tromsbyraet.vareminnesider.no/memorial_page/memorial_page_personal_info.php?order_id=3750647&set_site_id=120&cat=home&sign=ef989a554c281b74985b010446263b88"
      },
      "donation": {
        "visible": true,
        "url": "https://tromsbyraet.vareminnesider.no/donation/memorial_donation.php?order_id=3750647&set_site_id=120&cat=MemorialDonation&action=new&sign=4650a53f7583d7505fb0a3805a130106"
      },
      "flowerShop": {
        "visible": true,
        "url": "https://tromsbyraet.vareminnesider.no/flower_shop/choose_delivery_type.php?order_id=3750647&set_site_id=120&action=buy_product&cat=flowers&hide_wizard=true&page_source=portal&sign=87afb2263d2f01800e9f094cc39d2217"
      },
      "deathNotice": {
        "visible": true,
        "url": "https://tromsbyraet.vareminnesider.no/order_info.php?order_id=3750647&set_site_id=120&memorial_page_created=1&design=tromsbyraet&sign=b8c713ad3f002f2a85db1e9f2f089b57"
      }
    },
    {
      "id": 3750613,
      "firstName": "LEGACY-4026",
      "lastName": "LEGACY-4026",
      "photoUrl": "",
      "birthdate": "1919-12-09",
      "deathdate": "2021-01-27",
      "deathCity": "Addis Abeba, Etiopia",
      "hideDeathDate": false,
      "memorialPage": {
        "visible": true,
        "url": "https://tromsbyraet.vareminnesider.no/memorial_page/memorial_page_personal_info.php?order_id=3750613&set_site_id=120&cat=home&sign=432888f9cd6223e41e07750694db8661"
      },
      "donation": {
        "visible": true,
        "url": "https://tromsbyraet.vareminnesider.no/donation/memorial_donation.php?order_id=3750613&set_site_id=120&cat=MemorialDonation&action=new&sign=10fd3d24a79eca9f58766a21ec8227c8"
      },
      "flowerShop": {
        "visible": true,
        "url": "https://tromsbyraet.vareminnesider.no/flower_shop/choose_delivery_type.php?order_id=3750613&set_site_id=120&action=buy_product&cat=flowers&hide_wizard=true&page_source=portal&sign=a9cbc00e303ac536ed7dc85a5a76e315"
      },
      "deathNotice": {
        "visible": true,
        "url": "https://tromsbyraet.vareminnesider.no/order_info.php?order_id=3750613&set_site_id=120&memorial_page_created=1&design=tromsbyraet&sign=367b22f5513733dadd77ea5972ca5b82"
      }
    },
    {
      "id": 3750626,
      "firstName": "LEGACY-4026",
      "lastName": "same-customer-diff-user",
      "photoUrl": "",
      "birthdate": "1919-12-09",
      "deathdate": "2021-02-02",
      "deathCity": "Addis Abeba, Etiopia",
      "hideDeathDate": false,
      "memorialPage": {
        "visible": true,
        "url": "https://tromsbyraet.vareminnesider.no/memorial_page/memorial_page_personal_info.php?order_id=3750626&set_site_id=120&cat=home&sign=c1477ac6542cfd613d78658fd4b20389"
      },
      "donation": {
        "visible": true,
        "url": "https://tromsbyraet.vareminnesider.no/donation/memorial_donation.php?order_id=3750626&set_site_id=120&cat=MemorialDonation&action=new&sign=b1490f51c57fad05615a5aedacbed1d6"
      },
      "flowerShop": {
        "visible": true,
        "url": "https://tromsbyraet.vareminnesider.no/flower_shop/choose_delivery_type.php?order_id=3750626&set_site_id=120&action=buy_product&cat=flowers&hide_wizard=true&page_source=portal&sign=09f6f5a437c7acb753a10789de34d940"
      },
      "deathNotice": {
        "visible": true,
        "url": "https://tromsbyraet.vareminnesider.no/order_info.php?order_id=3750626&set_site_id=120&memorial_page_created=1&design=tromsbyraet&sign=456609c38dc75cea6d0df0a45eebb4ab"
      }
    },
    {
      "id": 3750596,
      "firstName": "BUG-1607",
      "lastName": "BUG-1607",
      "photoUrl": "",
      "birthdate": "1919-12-09",
      "deathdate": "2021-01-21",
      "deathCity": "Agdenes",
      "hideDeathDate": false,
      "memorialPage": {
        "visible": true,
        "url": "https://tromsbyraet.vareminnesider.no/memorial_page/memorial_page_personal_info.php?order_id=3750596&set_site_id=120&cat=home&sign=6702645567675f540da630aeae3bf04b"
      },
      "donation": {
        "visible": true,
        "url": "https://tromsbyraet.vareminnesider.no/donation/memorial_donation.php?order_id=3750596&set_site_id=120&cat=MemorialDonation&action=new&sign=73a6ba9b8973592e0c99f01c83f5ff27"
      },
      "flowerShop": {
        "visible": true,
        "url": "https://tromsbyraet.vareminnesider.no/flower_shop/choose_delivery_type.php?order_id=3750596&set_site_id=120&action=buy_product&cat=flowers&hide_wizard=true&page_source=portal&sign=85106feccdf7d28f855cda1808540348"
      },
      "deathNotice": {
        "visible": true,
        "url": "https://tromsbyraet.vareminnesider.no/order_info.php?order_id=3750596&set_site_id=120&memorial_page_created=1&design=tromsbyraet&sign=6dcc0f196584bd9255ddb2f70025f0f9"
      }
    },
    {
      "id": 3750557,
      "firstName": "LEGACY-3862",
      "lastName": "LEGACY-3862",
      "photoUrl": "",
      "birthdate": "1919-12-09",
      "deathdate": "2021-01-13",
      "deathCity": "Agdenes",
      "hideDeathDate": false,
      "memorialPage": {
        "visible": true,
        "url": "https://tromsbyraet.vareminnesider.no/memorial_page/memorial_page_personal_info.php?order_id=3750557&set_site_id=120&cat=home&sign=63e2421cbe908660a43fc85dd5f36911"
      },
      "donation": {
        "visible": true,
        "url": "https://tromsbyraet.vareminnesider.no/donation/memorial_donation.php?order_id=3750557&set_site_id=120&cat=MemorialDonation&action=new&sign=d064bf6a073dde4823e4067b50b7eab6"
      },
      "flowerShop": {
        "visible": true,
        "url": "https://tromsbyraet.vareminnesider.no/flower_shop/choose_delivery_type.php?order_id=3750557&set_site_id=120&action=buy_product&cat=flowers&hide_wizard=true&page_source=portal&sign=db994aada86aa1493f5d1ef9d2cb07d3"
      },
      "deathNotice": {
        "visible": true,
        "url": "https://tromsbyraet.vareminnesider.no/order_info.php?order_id=3750557&set_site_id=120&memorial_page_created=1&design=tromsbyraet&sign=dd4f5ed5c4c3ea6f81677600a452eb96"
      }
    },
    {
      "id": 3740533,
      "firstName": "test",
      "lastName": "test",
      "photoUrl": "",
      "birthdate": "1919-12-09",
      "deathdate": "2020-12-24",
      "deathCity": "Addis Abeba, Etiopia",
      "hideDeathDate": false,
      "memorialPage": {
        "visible": true,
        "url": "https://tromsbyraet.vareminnesider.no/memorial_page/memorial_page_personal_info.php?order_id=3740533&set_site_id=120&cat=home&sign=78a74a85f262b06c990b3a9281bbd8f5"
      },
      "donation": {
        "visible": false,
        "url": ""
      },
      "flowerShop": {
        "visible": true,
        "url": "https://tromsbyraet.vareminnesider.no/flower_shop/choose_delivery_type.php?order_id=3740533&set_site_id=120&action=buy_product&cat=flowers&hide_wizard=true&page_source=portal&sign=dc8749242c407cece366dac99ba4dbe4"
      },
      "deathNotice": {
        "visible": true,
        "url": "https://tromsbyraet.vareminnesider.no/order_info.php?order_id=3740533&set_site_id=120&memorial_page_created=1&design=tromsbyraet&sign=3dc3490de26354f38917dcbf6a4d78c9"
      }
    },
    {
      "id": 3740531,
      "firstName": "LEGACY-3932",
      "lastName": "LEGACY-3932",
      "photoUrl": "",
      "birthdate": "1919-12-09",
      "deathdate": "2020-12-23",
      "deathCity": "Abelvær",
      "hideDeathDate": false,
      "memorialPage": {
        "visible": true,
        "url": "https://fonus.vareminnesider.no/memorial_page/memorial_page_personal_info.php?order_id=3740531&set_site_id=144&cat=home&sign=473f8a96e5343f063cbc29f79b1ba837"
      },
      "donation": {
        "visible": true,
        "url": "https://fonus.vareminnesider.no/donation/memorial_donation.php?order_id=3740531&set_site_id=144&cat=MemorialDonation&action=new&sign=60bc1e9ee9c53c60cf9360248dae3444"
      },
      "flowerShop": {
        "visible": false,
        "url": ""
      },
      "deathNotice": {
        "visible": true,
        "url": "https://fonus.vareminnesider.no/order_info.php?order_id=3740531&set_site_id=144&memorial_page_created=1&design=fonus-no&sign=cee1fde43ea17e88059afad0ec6906d0"
      }
    },
    {
      "id": 3740524,
      "firstName": "LEGACY-3935",
      "lastName": "LEGACY-3935",
      "photoUrl": "",
      "birthdate": "1970-02-28",
      "deathdate": "2020-12-21",
      "deathCity": "Addis Abeba, Etiopia",
      "hideDeathDate": false,
      "memorialPage": {
        "visible": true,
        "url": "https://abbedissen.vareminnesider.no/memorial_page/memorial_page_personal_info.php?order_id=3740524&set_site_id=231&cat=home&sign=97ea7fae0ec4180c264238e30d68586a"
      },
      "donation": {
        "visible": false,
        "url": ""
      },
      "flowerShop": {
        "visible": true,
        "url": "https://abbedissen.vareminnesider.no/flower_shop/choose_delivery_type.php?order_id=3740524&set_site_id=231&action=buy_product&cat=flowers&hide_wizard=true&page_source=portal&sign=7650a2d259df8a4d0f48a4227efc12cd"
      },
      "deathNotice": {
        "visible": true,
        "url": "https://abbedissen.vareminnesider.no/order_info.php?order_id=3740524&set_site_id=231&memorial_page_created=1&design=abbedissen&sign=60e430676a50f485e2b2580f272db02c"
      }
    },
    {
      "id": 3740473,
      "firstName": "LEGACY-3868",
      "lastName": "booking with out image",
      "photoUrl": "",
      "birthdate": "1970-02-28",
      "deathdate": "2020-12-07",
      "deathCity": "Abelvær",
      "hideDeathDate": false,
      "memorialPage": {
        "visible": true,
        "url": "https://abbedissen.vareminnesider.no/memorial_page/memorial_page_personal_info.php?order_id=3740473&set_site_id=231&cat=home&sign=b2a3dc0e75d36a0092fa687770b228af"
      },
      "donation": {
        "visible": false,
        "url": ""
      },
      "flowerShop": {
        "visible": true,
        "url": "https://abbedissen.vareminnesider.no/flower_shop/choose_delivery_type.php?order_id=3740473&set_site_id=231&action=buy_product&cat=flowers&hide_wizard=true&page_source=portal&sign=3bd574b6d1680c491c7e7a1d82713f1a"
      },
      "deathNotice": {
        "visible": true,
        "url": "https://abbedissen.vareminnesider.no/order_info.php?order_id=3740473&set_site_id=231&memorial_page_created=1&design=abbedissen&sign=a5ccf0e8333d66aba093aaa204895566"
      }
    },
    {
      "id": 3740471,
      "firstName": "BUG-1588",
      "lastName": "live",
      "photoUrl": "",
      "birthdate": "1970-02-28",
      "deathdate": "2020-12-07",
      "deathCity": "Addis Abeba, Etiopia",
      "hideDeathDate": false,
      "memorialPage": {
        "visible": true,
        "url": "https://abbedissen.vareminnesider.no/memorial_page/memorial_page_personal_info.php?order_id=3740471&set_site_id=231&cat=home&sign=e8259b8d5aaef37d57caaf2f01413638"
      },
      "donation": {
        "visible": false,
        "url": ""
      },
      "flowerShop": {
        "visible": true,
        "url": "https://abbedissen.vareminnesider.no/flower_shop/choose_delivery_type.php?order_id=3740471&set_site_id=231&action=buy_product&cat=flowers&hide_wizard=true&page_source=portal&sign=f06218e60e173d200e710174a8a500eb"
      },
      "deathNotice": {
        "visible": true,
        "url": "https://abbedissen.vareminnesider.no/order_info.php?order_id=3740471&set_site_id=231&memorial_page_created=1&design=abbedissen&sign=470f8609609607c76b6c701373a6174e"
      }
    },
    {
      "id": 3740443,
      "firstName": "a lot greeting ",
      "lastName": "and donations",
      "photoUrl": "",
      "birthdate": "1970-02-28",
      "deathdate": "2020-11-24",
      "deathCity": "Addis Abeba, Etiopia",
      "hideDeathDate": false,
      "memorialPage": {
        "visible": true,
        "url": "https://abbedissen.vareminnesider.no/memorial_page/memorial_page_personal_info.php?order_id=3740443&set_site_id=231&cat=home&sign=8ff1252ae1b8d041059ecec9e194ac7b"
      },
      "donation": {
        "visible": true,
        "url": "https://abbedissen.vareminnesider.no/donation/memorial_donation.php?order_id=3740443&set_site_id=231&cat=MemorialDonation&action=new&sign=8329efc348801d2f4c56ff8af1ffcb7b"
      },
      "flowerShop": {
        "visible": true,
        "url": "https://abbedissen.vareminnesider.no/flower_shop/choose_delivery_type.php?order_id=3740443&set_site_id=231&action=buy_product&cat=flowers&hide_wizard=true&page_source=portal&sign=49db694ebae2c0961040f7ee27a18482"
      },
      "deathNotice": {
        "visible": true,
        "url": "https://abbedissen.vareminnesider.no/order_info.php?order_id=3740443&set_site_id=231&memorial_page_created=1&design=abbedissen&sign=cb7d212e5fe3f7284e2d7a929faed0ef"
      }
    },
    {
      "id": 3740440,
      "firstName": "test",
      "lastName": "test",
      "photoUrl": "",
      "birthdate": "1919-12-09",
      "deathdate": "2020-11-23",
      "deathCity": "Alby",
      "hideDeathDate": false,
      "memorialPage": {
        "visible": true,
        "url": "https://tromsbyraet.vareminnesider.no/memorial_page/memorial_page_personal_info.php?order_id=3740440&set_site_id=120&cat=home&sign=1b970528fc088f62a5f2a9c21d8e9869"
      },
      "donation": {
        "visible": true,
        "url": "https://tromsbyraet.vareminnesider.no/donation/memorial_donation.php?order_id=3740440&set_site_id=120&cat=MemorialDonation&action=new&sign=4282f2f726789c78c93b41fcddce9546"
      },
      "flowerShop": {
        "visible": true,
        "url": "https://tromsbyraet.vareminnesider.no/flower_shop/choose_delivery_type.php?order_id=3740440&set_site_id=120&action=buy_product&cat=flowers&hide_wizard=true&page_source=portal&sign=44bf2a5267faddffa51892c21d1bbe6d"
      },
      "deathNotice": {
        "visible": true,
        "url": "https://tromsbyraet.vareminnesider.no/order_info.php?order_id=3740440&set_site_id=120&memorial_page_created=1&design=tromsbyraet&sign=2c99a6f4024cecf253225947314d13e5"
      }
    },
    {
      "id": 3740398,
      "firstName": "BUG-1566",
      "lastName": "BUG-1566",
      "photoUrl": "",
      "birthdate": "1919-12-09",
      "deathdate": "2020-11-13",
      "deathCity": "Ahus",
      "hideDeathDate": false,
      "memorialPage": {
        "visible": true,
        "url": "https://tromsbyraet.vareminnesider.no/memorial_page/memorial_page_personal_info.php?order_id=3740398&set_site_id=120&cat=home&sign=ae8d7feb7a49c380c06deb7a9e078c07"
      },
      "donation": {
        "visible": true,
        "url": "https://tromsbyraet.vareminnesider.no/donation/memorial_donation.php?order_id=3740398&set_site_id=120&cat=MemorialDonation&action=new&sign=49fe0d344beb6d3f9476f3a373c0f30b"
      },
      "flowerShop": {
        "visible": true,
        "url": "https://tromsbyraet.vareminnesider.no/flower_shop/choose_delivery_type.php?order_id=3740398&set_site_id=120&action=buy_product&cat=flowers&hide_wizard=true&page_source=portal&sign=da83cfd9ec55288772f9832c1ccd70bd"
      },
      "deathNotice": {
        "visible": true,
        "url": "https://tromsbyraet.vareminnesider.no/order_info.php?order_id=3740398&set_site_id=120&memorial_page_created=1&design=tromsbyraet&sign=fcc71a1d48e48b4302fc936e6403bd27"
      }
    },
    {
      "id": 3740388,
      "firstName": "LEGACY-3813",
      "lastName": "egistration",
      "photoUrl": "",
      "birthdate": "1970-02-28",
      "deathdate": "2020-11-11",
      "deathCity": "Abelvær",
      "hideDeathDate": false,
      "memorialPage": {
        "visible": true,
        "url": "https://abbedissen.vareminnesider.no/memorial_page/memorial_page_personal_info.php?order_id=3740388&set_site_id=231&cat=home&sign=ca83c7962ba01ae12592d94fd6eaeadf"
      },
      "donation": {
        "visible": false,
        "url": ""
      },
      "flowerShop": {
        "visible": true,
        "url": "https://abbedissen.vareminnesider.no/flower_shop/choose_delivery_type.php?order_id=3740388&set_site_id=231&action=buy_product&cat=flowers&hide_wizard=true&page_source=portal&sign=855e6844e5976185d96ea4b5e0b01330"
      },
      "deathNotice": {
        "visible": true,
        "url": "https://abbedissen.vareminnesider.no/order_info.php?order_id=3740388&set_site_id=231&memorial_page_created=1&design=abbedissen&sign=6e819f8eb639cc6c1b46aeaa0cdf55e0"
      }
    },
    {
      "id": 3740381,
      "firstName": "BUG-1560",
      "lastName": "BUG-1560",
      "photoUrl": "",
      "birthdate": "1919-12-09",
      "deathdate": "2020-11-09",
      "deathCity": "Alafors",
      "hideDeathDate": false,
      "memorialPage": {
        "visible": true,
        "url": "https://tromsbyraet.vareminnesider.no/memorial_page/memorial_page_personal_info.php?order_id=3740381&set_site_id=120&cat=home&sign=90cf2f104cd83755cce505786f12733a"
      },
      "donation": {
        "visible": true,
        "url": "https://tromsbyraet.vareminnesider.no/donation/memorial_donation.php?order_id=3740381&set_site_id=120&cat=MemorialDonation&action=new&sign=6d89167dba2ef0dc3ef798d62551cfa4"
      },
      "flowerShop": {
        "visible": true,
        "url": "https://tromsbyraet.vareminnesider.no/flower_shop/choose_delivery_type.php?order_id=3740381&set_site_id=120&action=buy_product&cat=flowers&hide_wizard=true&page_source=portal&sign=2bcef4c48e5bbcf0d28eef36cc639fc1"
      },
      "deathNotice": {
        "visible": true,
        "url": "https://tromsbyraet.vareminnesider.no/order_info.php?order_id=3740381&set_site_id=120&memorial_page_created=1&design=tromsbyraet&sign=a949190f33d397a22e2d556f70f40fae"
      }
    },
    {
      "id": 3740377,
      "firstName": "BUG-1553",
      "lastName": "BUG-1553",
      "photoUrl": "",
      "birthdate": "1919-12-09",
      "deathdate": "2020-11-05",
      "deathCity": "Alby",
      "hideDeathDate": false,
      "memorialPage": {
        "visible": true,
        "url": "https://tromsbyraet.vareminnesider.no/memorial_page/memorial_page_personal_info.php?order_id=3740377&set_site_id=120&cat=home&sign=218f48433e7b175c403d1f4f881ce9a9"
      },
      "donation": {
        "visible": true,
        "url": "https://tromsbyraet.vareminnesider.no/donation/memorial_donation.php?order_id=3740377&set_site_id=120&cat=MemorialDonation&action=new&sign=79995c7fad5b0556e970ff07b62636b9"
      },
      "flowerShop": {
        "visible": true,
        "url": "https://tromsbyraet.vareminnesider.no/flower_shop/choose_delivery_type.php?order_id=3740377&set_site_id=120&action=buy_product&cat=flowers&hide_wizard=true&page_source=portal&sign=94ba0a58d05b60d4902e5596b33cddd7"
      },
      "deathNotice": {
        "visible": true,
        "url": "https://tromsbyraet.vareminnesider.no/order_info.php?order_id=3740377&set_site_id=120&memorial_page_created=1&design=tromsbyraet&sign=5f56a4f644746499108bd071b47bccfd"
      }
    }
  ],
  "pageable": {
    "sort": {
      "unsorted": true,
      "sorted": false,
      "empty": true
    },
    "offset": 0,
    "pageSize": 20,
    "pageNumber": 0,
    "paged": true,
    "unpaged": false
  },
  "totalPages": 2,
  "totalElements": 40,
  "last": false,
  "size": 20,
  "number": 0,
  "sort": {
    "unsorted": true,
    "sorted": false,
    "empty": true
  },
  "numberOfElements": 20,
  "first": true,
  "empty": false
}